C:\Users\gandhi.d\workspace\remedyweb\src\com\prodapt\remedy\common\ResponseMessage.java
C:\Users\gandhi.d\workspace\remedyweb\src\com\prodapt\remedy\service\package-info.java
C:\Users\gandhi.d\workspace\remedyweb\src\com\prodapt\remedy\beans\ResponseBean.java
C:\Users\gandhi.d\workspace\remedyweb\src\com\prodapt\remedy\package-info.java
C:\Users\gandhi.d\workspace\remedyweb\src\com\prodapt\remedy\common\MysqlCon.java
C:\Users\gandhi.d\workspace\remedyweb\src\com\prodapt\remedy\controller\package-info.java
C:\Users\gandhi.d\workspace\remedyweb\src\com\prodapt\remedy\common\JWTProperties.java
C:\Users\gandhi.d\workspace\remedyweb\src\com\prodapt\remedy\beans\User.java
C:\Users\gandhi.d\workspace\remedyweb\src\com\prodapt\remedy\beans\Token.java
C:\Users\gandhi.d\workspace\remedyweb\src\com\prodapt\remedy\common\ResponseCode.java
C:\Users\gandhi.d\workspace\remedyweb\src\com\prodapt\remedy\common\package-info.java
C:\Users\gandhi.d\workspace\remedyweb\src\com\prodapt\remedy\service\TokenService.java
C:\Users\gandhi.d\workspace\remedyweb\src\com\prodapt\remedy\common\CustomQuizException.java
C:\Users\gandhi.d\workspace\remedyweb\src\com\prodapt\remedy\common\ResponseData.java
C:\Users\gandhi.d\workspace\remedyweb\src\com\prodapt\remedy\beans\package-info.java
